<?xml version="1.0" encoding="UTF-8" standalone="no"?>
<!-- Created with Inkscape (http://www.inkscape.org/) -->
<svg xmlns:dc="http://purl.org/dc/elements/1.1/" xmlns:cc="http://creativecommons.org/ns#" xmlns:rdf="http://www.w3.org/1999/02/22-rdf-syntax-ns#" xmlns:svg="http://www.w3.org/2000/svg" xmlns="http://www.w3.org/2000/svg" xmlns:sodipodi="http://sodipodi.sourceforge.net/DTD/sodipodi-0.dtd" xmlns:inkscape="http://www.inkscape.org/namespaces/inkscape" width="56.444447mm" height="56.44445mm" viewBox="0 0 200 200.00002" id="svg2" version="1.1" inkscape:version="0.92.1 r" sodipodi:docname="green.svg">
  <defs id="defs4"/>
  <sodipodi:namedview id="base" pagecolor="#ffffff" bordercolor="#666666" borderopacity="1.0" inkscape:pageopacity="0.0" inkscape:pageshadow="2" inkscape:zoom="1.4142136" inkscape:cx="30.692892" inkscape:cy="126.5323" inkscape:document-units="px" inkscape:current-layer="layer1" showgrid="false" inkscape:showpageshadow="false" fit-margin-top="0" fit-margin-left="0" fit-margin-right="0" fit-margin-bottom="0" inkscape:window-width="1366" inkscape:window-height="742" inkscape:window-x="0" inkscape:window-y="0" inkscape:window-maximized="0" inkscape:pagecheckerboard="true"/>
  <metadata id="metadata7">
    <rdf:RDF>
      <cc:Work rdf:about="">
        <dc:format>image/svg+xml</dc:format>
        <dc:type rdf:resource="http://purl.org/dc/dcmitype/StillImage"/>
        <dc:title/>
      </cc:Work>
    </rdf:RDF>
  </metadata>
  <g inkscape:label="Ebene 1" inkscape:groupmode="layer" id="layer1" transform="translate(222.41168,-236.90016)">
    <g id="g5967" style="fill:#35bf5c;fill-opacity:1">
      <g id="g4446" transform="matrix(1.2196132,0,0,1.0000088,-467.56616,-225.96506)" style="fill:#35bf5c;fill-opacity:1">
        <rect style="opacity:1;fill:#35bf5c;fill-opacity:1;fill-rule:evenodd;stroke:none;stroke-width:7.07399988;stroke-linecap:round;stroke-linejoin:miter;stroke-miterlimit:4;stroke-dasharray:21.222, 21.22200000000000131;stroke-dashoffset:0;stroke-opacity:1" id="rect4149-7" width="47.994675" height="199.99825" x="317.00177" y="462.86115"/>
        <rect style="opacity:1;fill:#35bf5c;fill-opacity:1;fill-rule:evenodd;stroke:none;stroke-width:7.07399988;stroke-linecap:round;stroke-linejoin:miter;stroke-miterlimit:4;stroke-dasharray:21.222, 21.22200000000000131;stroke-dashoffset:0;stroke-opacity:1" id="rect4149-0-6" width="47.994675" height="129.26767" x="259.00415" y="533.59174"/>
      </g>
      <path inkscape:connector-curvature="0" id="path5961" d="m -222.41168,236.90016 h 129.26633 v 58.53494 h -70.93002 v 141.46508 h -58.33631 z" style="fill:#35bf5c;fill-opacity:1;fill-rule:evenodd;stroke:none;stroke-width:0.93749994px;stroke-linecap:butt;stroke-linejoin:miter;stroke-opacity:1"/>
    </g>
  </g>
</svg>
